<svg xmlns="http://www.w3.org/2000/svg" width="184" height="49" viewBox="0 0 184 49">
    <g fill="none" fill-rule="evenodd">
        <path fill="#FFF" d="M67.18 31v-8.634h-7.36V31H54V9h5.82v8.57h7.36V9H73v22zM95.1 8.231v12.43c0 3.034-.179 5.25-.536 6.645-.357 1.396-1.154 2.39-2.39 2.984-1.235.594-3.25.89-6.047.89-2.796 0-4.811-.296-6.046-.89-1.237-.594-2.032-1.588-2.39-2.984-.358-1.396-.537-3.61-.537-6.644V8.23h5.657v13.65c0 1.561.054 2.638.163 3.232.108.594.378.989.813 1.187.433.198 1.214.297 2.34.297s1.907-.1 2.341-.297c.434-.198.703-.593.812-1.187.11-.594.163-1.67.163-3.231V8.23H95.1zM108.527 13.309h-.163l-2.568 8.672h5.332l-2.601-8.672zm5.267 17.607l-1.334-4.286h-7.964l-1.268 4.286h-5.657l7.152-22.685h7.673l7.153 22.685h-5.755zM125.01 30.916V23.2l-7.444-14.97h5.85l4.39 9.365h.228l4.355-9.364h5.722l-7.444 14.97v7.715zM153.782 30.916l-7.738-12.958h-.163v12.958h-5.396V8.231h5.82L153.488 20h.162V8.232h5.43v22.685zM172.605 13.309h-.163l-2.568 8.672h5.332l-2.601-8.672zm5.267 17.607l-1.333-4.286h-7.965l-1.268 4.286h-5.657L168.8 8.231h7.673l7.153 22.685h-5.755zM64.854 42.758v-.846c.915.093 1.679.139 2.292.139.38 0 .68-.016.902-.048.223-.032.41-.091.565-.177a.6.6 0 0 0 .275-.38c.042-.168.063-.391.063-.67 0-.335-.017-.573-.053-.712a.451.451 0 0 0-.247-.306c-.13-.064-.354-.11-.672-.138l-1.795-.204c-.436-.05-.765-.155-.987-.316a1.143 1.143 0 0 1-.443-.632c-.074-.26-.112-.6-.112-1.022 0-.586.101-1.029.302-1.329.2-.3.483-.5.845-.6.362-.1.85-.15 1.462-.15.408 0 .824.018 1.247.054.421.036.756.08 1.003.129v.813c-.269-.042-.599-.076-.993-.1a17.42 17.42 0 0 0-1.099-.039c-.394 0-.71.018-.95.054-.24.035-.425.096-.56.182a.59.59 0 0 0-.285.343 2.267 2.267 0 0 0-.063.61c0 .294.021.505.063.638a.475.475 0 0 0 .243.289c.12.06.317.105.592.133l1.774.204c.421.043.75.118.982.225.233.107.402.3.506.579.1.257.149.667.149 1.231 0 .65-.1 1.134-.296 1.452-.197.317-.46.52-.793.61-.33.09-.784.133-1.362.133-.386 0-.818-.014-1.293-.042a22.39 22.39 0 0 1-1.262-.107zM72.632 38.19a.677.677 0 0 0-.401.46c-.067.225-.105.587-.11 1.087h2.861v-.085c0-.471-.04-.818-.121-1.04-.082-.22-.213-.367-.397-.439-.182-.071-.464-.106-.845-.106-.458 0-.785.04-.987.123zm3.174 2.212H72.12c0 .52.036.892.105 1.113.071.222.225.377.46.466.236.09.631.134 1.189.134.54 0 1.115-.039 1.72-.118v.761a8.638 8.638 0 0 1-.876.107c-.359.029-.701.043-1.024.043-.726 0-1.258-.086-1.6-.257a1.256 1.256 0 0 1-.67-.825c-.107-.378-.16-.953-.16-1.724 0-.757.048-1.325.143-1.703.095-.379.31-.66.645-.847.334-.185.864-.278 1.588-.278.677 0 1.166.091 1.469.273.303.182.494.457.575.825.081.368.122.941.122 1.719v.31zM80.34 41.907a.81.81 0 0 0 .439-.413c.07-.157.118-.343.143-.557.024-.214.037-.5.037-.857a10.3 10.3 0 0 0-.027-.851 1.47 1.47 0 0 0-.131-.52.853.853 0 0 0-.455-.46c-.21-.093-.493-.14-.845-.14-.45 0-.775.045-.971.135-.197.089-.33.264-.396.524-.068.26-.1.698-.1 1.312 0 .607.032 1.041.1 1.302.066.26.199.435.396.525.196.089.52.133.97.133.353 0 .633-.044.84-.133m-2.867 3.025v-.76c.677.042 1.25.064 1.722.064.543 0 .934-.05 1.177-.15a.782.782 0 0 0 .475-.53c.075-.254.112-.658.112-1.216v-.235h-.054a1.172 1.172 0 0 1-.628.594c-.285.118-.652.177-1.103.177-.543 0-.955-.08-1.236-.241-.28-.161-.479-.438-.591-.83-.113-.393-.169-.964-.169-1.714 0-.757.058-1.333.174-1.73.116-.396.315-.676.597-.841.28-.164.69-.246 1.225-.246.429 0 .797.061 1.103.182.307.121.53.347.67.675h.064l.032-.772h.771v4.767c0 .772-.054 1.353-.163 1.746-.11.393-.337.684-.682.872-.345.19-.877.284-1.595.284-.746 0-1.38-.031-1.9-.096M87.337 42.051h-.063c-.12.279-.317.491-.592.638-.274.146-.672.219-1.194.219-.513 0-.902-.075-1.166-.225a1.126 1.126 0 0 1-.534-.67c-.09-.296-.137-.708-.137-1.236V37.36h.856v3.074c0 .514.03.879.09 1.092.06.214.177.357.353.429.176.071.473.107.887.107.445 0 .77-.072.977-.215a.943.943 0 0 0 .396-.594c.056-.253.085-.612.085-1.076V37.36h.856v5.462h-.772l-.042-.77zM89.977 37.36h.76l.044 1.038h.063c.127-.428.337-.723.634-.883.295-.16.682-.241 1.161-.241v.932c-.486 0-.859.075-1.12.225-.26.15-.44.38-.538.69-.099.311-.148.73-.148 1.259v2.442h-.856v-5.463zM93.853 42.822h.856v-5.463h-.856v5.463zm-.032-6.961h.91v-.997h-.91v.997zM99.493 41.928a.795.795 0 0 0 .433-.455c.07-.164.114-.352.132-.563.018-.21.026-.501.026-.872 0-.307-.011-.56-.031-.761-.022-.2-.061-.371-.117-.514a.867.867 0 0 0-.448-.487c-.216-.103-.51-.156-.882-.156-.443 0-.763.045-.957.134-.193.089-.323.266-.39.53-.067.265-.1.7-.1 1.307 0 .621.033 1.064.1 1.328.067.265.197.44.39.525.194.085.52.128.977.128.366 0 .655-.048.867-.144m-2.419.734c-.281-.165-.48-.445-.597-.842-.115-.395-.173-.969-.173-1.718 0-.757.056-1.335.168-1.736.113-.4.308-.681.587-.846.277-.164.68-.246 1.208-.246.466 0 .84.057 1.126.171.285.115.494.315.628.6h.063v-3.181h.856v7.958h-.772l-.032-.76h-.063c-.147.328-.373.551-.675.67-.303.117-.669.176-1.099.176-.534 0-.944-.083-1.225-.246M105.4 42.03a.756.756 0 0 0 .481-.375c.147-.257.222-.615.222-1.071v-.246h-1.796c-.296 0-.512.02-.65.064a.447.447 0 0 0-.29.251c-.057.125-.084.32-.084.584 0 .257.03.447.095.568.063.121.18.205.353.251.173.047.442.07.808.07.352 0 .64-.033.86-.097m-2.538.531c-.282-.232-.424-.644-.424-1.238 0-.42.05-.75.149-.984a.953.953 0 0 1 .501-.515c.236-.107.57-.16.999-.16.204 0 .875.017 2.017.053v-.321c0-.429-.04-.732-.122-.91-.08-.18-.23-.293-.443-.343-.215-.05-.58-.075-1.094-.075-.225 0-.508.012-.85.037-.34.025-.607.052-.797.08v-.76c.557-.1 1.208-.15 1.954-.15.633 0 1.107.066 1.42.198.313.132.522.347.629.643.105.296.158.727.158 1.29v3.417h-.771l-.042-.76h-.064c-.148.343-.385.57-.713.68-.327.11-.712.166-1.156.166-.619 0-1.07-.116-1.351-.348M111.752 41.928a.795.795 0 0 0 .434-.455c.07-.164.114-.352.131-.563.018-.21.027-.501.027-.872 0-.307-.011-.56-.031-.761-.022-.2-.062-.371-.117-.514a.867.867 0 0 0-.449-.487c-.215-.103-.51-.156-.882-.156-.443 0-.762.045-.956.134-.193.089-.323.266-.39.53-.068.265-.1.7-.1 1.307 0 .621.032 1.064.1 1.328.067.265.197.44.39.525.194.085.52.128.977.128.366 0 .655-.048.866-.144m-2.418.734c-.281-.165-.48-.445-.597-.842-.115-.395-.174-.969-.174-1.718 0-.757.056-1.335.169-1.736.112-.4.308-.681.586-.846.278-.164.68-.246 1.21-.246.464 0 .84.057 1.124.171.285.115.495.315.629.6h.063v-3.181h.855v7.958h-.771l-.032-.76h-.063c-.147.328-.373.551-.676.67-.302.117-.668.176-1.098.176-.535 0-.944-.083-1.225-.246M117.772 44.932v-.75c.774.037 1.316.054 1.627.054.542 0 .936-.055 1.182-.166a.809.809 0 0 0 .475-.525c.071-.24.107-.616.107-1.13v-.322h-.064a1.17 1.17 0 0 1-.565.574c-.27.139-.664.208-1.178.208-.513 0-.903-.072-1.167-.219a1.108 1.108 0 0 1-.534-.664c-.09-.296-.136-.705-.136-1.226V37.36h.855v3.052c0 .514.03.879.09 1.093.06.214.177.356.353.428.176.072.473.107.887.107.445 0 .77-.071.977-.214a.945.945 0 0 0 .397-.59c.055-.249.085-.606.085-1.07V37.36h.855v4.798c0 .757-.057 1.332-.17 1.724-.111.393-.341.682-.685.868-.346.185-.871.279-1.574.279-.754 0-1.36-.033-1.817-.097M128.343 42.822l-2.63-7.37h.951l2.229 6.235h.052l2.238-6.234h.919l-2.619 7.37zM133.337 42.822h.856v-5.463h-.856v5.463zm-.032-6.961h.91v-.997h-.91v.997zM138.95 41.907a.81.81 0 0 0 .439-.413c.07-.157.117-.343.143-.557.024-.214.036-.5.036-.857a10.3 10.3 0 0 0-.026-.851 1.47 1.47 0 0 0-.132-.52.853.853 0 0 0-.455-.46c-.21-.093-.493-.14-.845-.14-.45 0-.774.045-.97.135-.198.089-.33.264-.397.524s-.1.698-.1 1.312c0 .607.033 1.041.1 1.302.067.26.2.435.396.525.197.089.521.133.971.133.352 0 .633-.044.84-.133m-2.867 3.025v-.76c.677.042 1.25.064 1.722.064.542 0 .933-.05 1.177-.15a.782.782 0 0 0 .475-.53c.075-.254.111-.658.111-1.216v-.235h-.053a1.172 1.172 0 0 1-.628.594c-.285.118-.653.177-1.104.177-.542 0-.954-.08-1.235-.241-.281-.161-.48-.438-.592-.83-.113-.393-.168-.964-.168-1.714 0-.757.058-1.333.173-1.73.117-.396.316-.676.597-.841.281-.164.69-.246 1.225-.246.43 0 .797.061 1.104.182.306.121.53.347.67.675h.063l.032-.772h.772v4.767c0 .772-.055 1.353-.164 1.746-.11.393-.337.684-.681.872-.345.19-.877.284-1.596.284-.746 0-1.38-.031-1.9-.096M142.26 42.822h.856v-5.463h-.855v5.463zm-.03-6.961h.908v-.997h-.909v.997zM144.943 42.822h.855v-7.958h-.855zM150.25 42.03a.756.756 0 0 0 .481-.375c.147-.257.222-.615.222-1.071v-.246h-1.796c-.296 0-.513.02-.65.064a.447.447 0 0 0-.29.251c-.057.125-.085.32-.085.584 0 .257.032.447.095.568.064.121.181.205.354.251.173.047.442.07.808.07.352 0 .639-.033.86-.097m-2.539.531c-.28-.232-.423-.644-.423-1.238 0-.42.05-.75.148-.984a.953.953 0 0 1 .502-.515c.236-.107.569-.16.999-.16.204 0 .875.017 2.017.053v-.321c0-.429-.041-.732-.122-.91-.081-.18-.23-.293-.443-.343-.216-.05-.58-.075-1.094-.075-.226 0-.508.012-.85.037-.34.025-.607.052-.797.08v-.76c.556-.1 1.208-.15 1.954-.15.633 0 1.107.066 1.42.198.313.132.522.347.628.643.106.296.159.727.159 1.29v3.417h-.772l-.041-.76h-.064c-.148.343-.385.57-.713.68-.327.11-.712.166-1.156.166-.62 0-1.07-.116-1.352-.348M157.289 39.748c0-.507-.032-.87-.095-1.087-.063-.217-.184-.362-.36-.434-.176-.07-.471-.107-.887-.107-.443 0-.769.071-.977.214a.918.918 0 0 0-.39.59c-.053.25-.08.61-.08 1.081v2.817h-.855V37.36h.76l.043.772h.063c.12-.279.318-.49.591-.637.275-.147.673-.22 1.193-.22.522 0 .914.075 1.179.225.264.15.44.373.532.67.092.295.138.708.138 1.236v3.417h-.855v-3.074zM162.702 42.865c-.272.028-.53.042-.777.042-.661 0-1.148-.096-1.457-.288a1.31 1.31 0 0 1-.597-.857c-.089-.378-.132-.935-.132-1.671 0-.72.052-1.278.159-1.67.105-.393.312-.683.623-.869.31-.185.767-.278 1.372-.278.24 0 .495.014.765.043.272.028.502.06.692.097v.77a6.782 6.782 0 0 0-1.245-.117c-.451 0-.78.053-.988.16-.207.107-.346.297-.417.568-.07.272-.106.703-.106 1.296 0 .6.037 1.037.11 1.312.075.275.216.462.424.562.208.1.544.15 1.009.15.344 0 .764-.035 1.256-.107v.76a9.01 9.01 0 0 1-.691.097M164.829 42.822h.855v-5.463h-.855v5.463zm-.032-6.961h.909v-.997h-.909v.997zM170.135 42.03a.756.756 0 0 0 .482-.375c.147-.257.221-.615.221-1.071v-.246h-1.795c-.297 0-.513.02-.65.064a.447.447 0 0 0-.29.251c-.057.125-.085.32-.085.584 0 .257.032.447.095.568.063.121.181.205.353.251.174.047.443.07.809.07.352 0 .639-.033.86-.097m-2.539.531c-.28-.232-.423-.644-.423-1.238 0-.42.05-.75.148-.984a.953.953 0 0 1 .502-.515c.236-.107.569-.16.998-.16.205 0 .876.017 2.017.053v-.321c0-.429-.04-.732-.121-.91-.081-.18-.23-.293-.444-.343-.215-.05-.579-.075-1.093-.075-.226 0-.508.012-.85.037-.341.025-.607.052-.797.08v-.76c.556-.1 1.207-.15 1.954-.15.633 0 1.107.066 1.42.198.313.132.522.347.628.643.106.296.159.727.159 1.29v3.417h-.772l-.042-.76h-.063c-.148.343-.385.57-.714.68-.327.11-.712.166-1.155.166-.62 0-1.07-.116-1.352-.348"/>
        <path fill="#FFA400" d="M3.892 4.006H8.71v14.948l1.201.505 10.2 4.281.746.315 12.019-5.046.131-.055V4.006h4.816v12.976l3.891-1.612V.059H24.095v3.947h5.02v12.31l-8.262 3.47c-.246-.109-.522-.225-.844-.36l-7.407-3.11V4.006h6.009V.06H0v15.026l3.891 1.718V4.006z"/>
        <path fill="#FFF" d="M41.714 37.154V20.367l-3.892 1.566v16.863l-4.816 2.033V23.852l-12.148 4.924-12.149-4.924v16.669l-4.817-2.046V21.922L0 20.354v20.747l18.602 7.9v-4.28L12.6 42.175V29.68l8.257 3.347 8.257-3.347v12.79l-4.898 2.067-.13.055v4.277l17.497-7.385.131-.055v-4.276z"/>
    </g>
</svg>
