{
  "IcoMoonType": "selection",
  "icons": [
    {
      "icon": {
        "paths": [
          "M71.095 512l468.846-462.482c5.331-5.2 8.637-12.454 8.637-20.48s-3.306-15.28-8.631-20.474l-0.006-0.006c-5.337-5.286-12.682-8.551-20.791-8.551s-15.454 3.266-20.793 8.554l0.002-0.002-489.691 482.999c-5.331 5.2-8.637 12.454-8.637 20.48s3.306 15.28 8.631 20.474l0.006 0.006 489.691 482.853c5.312 5.256 12.599 8.525 20.65 8.594l0.013 0c0.041 0 0.090 0 0.138 0 8.044 0 15.32-3.287 20.558-8.592l0.003-0.003c5.331-5.2 8.637-12.454 8.637-20.48s-3.306-15.28-8.631-20.474l-0.006-0.006-468.626-462.446z"
        ],
        "attrs": [
          {
            "fill": "rgb(70, 79, 88)"
          }
        ],
        "width": 549,
        "isMulticolor": false,
        "isMulticolor2": false,
        "grid": 0,
        "tags": [
          "fill-1"
        ]
      },
      "attrs": [
        {
          "fill": "rgb(70, 79, 88)"
        }
      ],
      "properties": {
        "order": 39,
        "id": 1,
        "name": "prev",
        "prevSize": 32,
        "code": 59655
      },
      "setIdx": 0,
      "setId": 2,
      "iconIdx": 0
    },
    {
      "icon": {
        "paths": [
          "M477.477 512l-468.846-462.519c-5.331-5.2-8.637-12.454-8.637-20.48s3.306-15.28 8.631-20.474l0.006-0.006c5.337-5.286 12.682-8.551 20.791-8.551s15.454 3.266 20.793 8.554l-0.002-0.002 489.691 483.035c11.557 11.337 11.557 29.623 0 40.96l-489.655 482.926c-5.325 5.251-12.627 8.509-20.69 8.558l-0.009 0c-0.041 0-0.090 0-0.138 0-8.044 0-15.32-3.287-20.558-8.592l-0.003-0.003c-5.331-5.2-8.637-12.454-8.637-20.48s3.306-15.28 8.631-20.474l0.006-0.006 468.626-462.482z"
        ],
        "attrs": [
          {
            "fill": "rgb(70, 79, 88)"
          }
        ],
        "width": 549,
        "isMulticolor": false,
        "isMulticolor2": false,
        "grid": 0,
        "tags": [
          "fill-1-copy"
        ]
      },
      "attrs": [
        {
          "fill": "rgb(70, 79, 88)"
        }
      ],
      "properties": {
        "order": 38,
        "id": 0,
        "name": "next",
        "prevSize": 32,
        "code": 59656
      },
      "setIdx": 0,
      "setId": 2,
      "iconIdx": 1
    },
    {
      "icon": {
        "paths": [
          "M513.393 511.918l-143.565 0.123-0.328 470.999h-197.059v-471.040h-131.482v-162.202h131.482l-0.164-95.846c0-132.424 40.059-212.992 214.139-212.992h145.203v162.324h-90.767c-67.789 0-70.984 22.528-70.984 65.004l-0.328 81.51h162.939l-19.087 162.12z"
        ],
        "attrs": [
          {
            "fill": "none",
            "strokeLinejoin": "miter",
            "strokeLinecap": "butt",
            "strokeMiterlimit": "4",
            "strokeWidth": 81.92
          }
        ],
        "width": 614,
        "isMulticolor": false,
        "isMulticolor2": false,
        "grid": 0,
        "tags": [
          "group (1)"
        ],
        "colorPermutations": {}
      },
      "attrs": [
        {
          "fill": "none",
          "strokeLinejoin": "miter",
          "strokeLinecap": "butt",
          "strokeMiterlimit": "4",
          "strokeWidth": 81.92
        }
      ],
      "properties": {
        "order": 33,
        "id": 7,
        "name": "facebook-b",
        "prevSize": 32,
        "code": 59648
      },
      "setIdx": 1,
      "setId": 1,
      "iconIdx": 0
    },
    {
      "icon": {
        "paths": [
          "M492.089 511.886l-149.504 0.171-0.398 511.943h-205.198v-512h-136.988v-176.242h136.988l-0.228-104.22c0-143.929 41.756-231.481 223.004-231.481h151.324v176.412h-94.663c-70.542 0-73.899 24.519-73.899 70.656l-0.398 88.633h169.87l-19.911 176.185z"
        ],
        "attrs": [],
        "width": 512,
        "isMulticolor": false,
        "isMulticolor2": false,
        "grid": 0,
        "tags": [
          "group"
        ],
        "colorPermutations": {}
      },
      "attrs": [],
      "properties": {
        "order": 27,
        "id": 6,
        "name": "facebook",
        "prevSize": 32,
        "code": 59649
      },
      "setIdx": 1,
      "setId": 1,
      "iconIdx": 1
    },
    {
      "icon": {
        "paths": [
          "M256.74 1008.924c-60.188-2.731-92.956-12.743-114.688-21.276-27.833-10.448-51.545-26.167-70.957-46.095l-0.041-0.042c-20.027-19.426-35.771-43.146-45.761-69.685l-0.433-1.312c-8.476-21.732-18.546-54.5-21.276-114.688-2.958-65.081-3.584-84.651-3.584-249.572 0-164.864 0.626-184.377 3.584-249.515 2.731-60.245 12.8-92.9 21.276-114.688 11.207-28.843 24.576-49.38 46.194-71.054 19.444-20 43.158-35.739 69.68-45.757l1.318-0.437c21.732-8.476 54.5-18.489 114.688-21.22 65.081-3.015 84.651-3.584 249.515-3.584 164.921 0 184.377 0.626 249.572 3.584 60.188 2.731 92.843 12.8 114.631 21.22 28.843 11.207 49.38 24.633 71.054 46.194 21.618 21.618 34.987 42.212 46.194 71.054 8.476 21.732 18.489 54.443 21.22 114.688 3.015 65.138 3.641 84.651 3.641 249.515s-0.626 184.434-3.641 249.572c-2.731 60.188-12.8 92.956-21.22 114.688-10.446 27.843-26.186 51.559-46.148 70.953l-0.046 0.044c-21.618 21.561-42.212 34.93-71.054 46.137-21.732 8.533-54.443 18.546-114.631 21.276-65.138 3.015-84.651 3.584-249.572 3.584-164.864 0-184.434-0.569-249.515-3.584zM761.799 176.583c0 40.939 33.187 74.126 74.126 74.126s74.126-33.187 74.126-74.126h-0c0-40.939-33.187-74.126-74.126-74.126s-74.126 33.187-74.126 74.126v0zM189.156 506.254c-0 175.129 141.97 317.099 317.099 317.099s317.099-141.97 317.099-317.099v0c0-175.129-141.97-317.099-317.099-317.099s-317.099 141.97-317.099 317.099v0zM300.43 506.254c0-113.673 92.151-205.824 205.824-205.824s205.824 92.151 205.824 205.824v0c0 113.673-92.151 205.824-205.824 205.824s-205.824-92.151-205.824-205.824h0z"
        ],
        "attrs": [],
        "isMulticolor": false,
        "isMulticolor2": false,
        "grid": 0,
        "tags": [
          "page-1 (1)"
        ],
        "colorPermutations": {}
      },
      "attrs": [],
      "properties": {
        "order": 28,
        "id": 5,
        "name": "instagram",
        "prevSize": 32,
        "code": 59650
      },
      "setIdx": 1,
      "setId": 1,
      "iconIdx": 2
    },
    {
      "icon": {
        "paths": [
          "M463.171 44.086v444.093h-444.093v59.23h444.093v444.093h59.176v-444.093h444.093v-59.23h-444.093v-444.093z"
        ],
        "attrs": [],
        "width": 970,
        "isMulticolor": false,
        "isMulticolor2": false,
        "grid": 0,
        "tags": [
          "page-1 (3)"
        ],
        "colorPermutations": {}
      },
      "attrs": [],
      "properties": {
        "order": 36,
        "id": 3,
        "name": "more",
        "prevSize": 32,
        "code": 59651
      },
      "setIdx": 1,
      "setId": 1,
      "iconIdx": 3
    },
    {
      "icon": {
        "paths": [
          "M612.966 989.798h-521.728c-27.443 0-49.766-18.432-49.766-40.96v-179.302h621.363v179.302c0 22.528-22.323 40.96-49.869 40.96zM91.238 34.202h521.728c27.546 0 49.869 18.432 49.869 40.96v76.902h-621.363v-76.851c0-22.528 22.323-40.96 49.766-40.96zM41.472 735.539v-549.376h621.363v549.427h-621.363zM612.966 0h-521.728c-50.278 0-91.238 33.792-91.238 75.162v873.677c0 41.37 40.96 75.162 91.238 75.162h521.728c50.381 0 91.238-33.792 91.238-75.162v-873.677c0-41.37-40.858-75.162-91.238-75.162z",
          "M352.154 893.696c-0 0-0 0-0 0-13.933 0-25.234-11.266-25.293-25.185l-0-0.006c0.625-13.471 11.699-24.155 25.267-24.155s24.642 10.685 25.265 24.099l0.002 0.056c-0.029 13.919-11.319 25.19-25.242 25.19-0 0-0-0-0-0l-0-0zM352.154 818.227c-0-0-0-0-0-0-27.809 0-50.366 22.485-50.483 50.267l-0 0.011c-0 27.881 22.602 50.483 50.483 50.483s50.483-22.602 50.483-50.483v0c-0.116-27.793-22.674-50.278-50.483-50.278-0 0-0 0-0 0l-0 0z"
        ],
        "attrs": [],
        "width": 717,
        "isMulticolor": false,
        "isMulticolor2": false,
        "grid": 0,
        "tags": [
          "page-1 (4)"
        ],
        "colorPermutations": {}
      },
      "attrs": [],
      "properties": {
        "order": 30,
        "id": 2,
        "name": "phone",
        "prevSize": 32,
        "code": 59652
      },
      "setIdx": 1,
      "setId": 1,
      "iconIdx": 4
    },
    {
      "icon": {
        "paths": [
          "M941.568 533.065l-406.235 196.754c-2.055 1.003-4.471 1.59-7.024 1.59-9.008 0-16.311-7.303-16.311-16.311 0-0.096 0.001-0.192 0.002-0.288l-0 0.014v-405.65c0-12.361 12.8-20.407 23.625-14.775l406.309 208.969c5.336 2.853 8.904 8.387 8.904 14.755 0 6.512-3.732 12.152-9.174 14.898l-0.096 0.044zM1159.022 0h-855.186c-167.79 0-303.835 134.583-303.835 300.617v422.766c0 166.107 136.046 300.617 303.835 300.617h855.186c167.79 0 303.835-134.583 303.835-300.544v-422.839c0-166.034-136.046-300.617-303.835-300.617z"
        ],
        "attrs": [],
        "width": 1463,
        "isMulticolor": false,
        "isMulticolor2": false,
        "grid": 0,
        "tags": [
          "page-1"
        ],
        "colorPermutations": {}
      },
      "attrs": [],
      "properties": {
        "order": 31,
        "id": 1,
        "name": "youtube",
        "prevSize": 32,
        "code": 59653
      },
      "setIdx": 1,
      "setId": 1,
      "iconIdx": 5
    },
    {
      "icon": {
        "paths": [
          "M1024 512l-1024 512v-1024z"
        ],
        "attrs": [],
        "isMulticolor": false,
        "isMulticolor2": false,
        "grid": 0,
        "tags": [
          "triangle"
        ],
        "colorPermutations": {}
      },
      "attrs": [],
      "properties": {
        "order": 32,
        "id": 0,
        "name": "triangle",
        "prevSize": 32,
        "code": 59654
      },
      "setIdx": 1,
      "setId": 1,
      "iconIdx": 6
    },
    {
      "icon": {
        "paths": [
          "M1000.64 889.152l-184.896-184.896c50.688-72.576 80.64-160.704 80.64-255.936 0-247.424-200.64-448-448-448s-448 200.576-448 448c0 247.424 200.576 448 448 448 95.232 0 183.424-29.952 256-80.64l184.896 184.896c30.72 30.72 80.64 30.72 111.36 0s30.72-80.576 0-111.424zM448.32 768.384c-176.704 0-320-143.232-320-320s143.296-320 320-320c176.768 0 320 143.232 320 320 0.064 176.768-143.168 320-320 320z"
        ],
        "attrs": [
          {}
        ],
        "isMulticolor": false,
        "tags": [
          "search",
          "magnifier"
        ],
        "grid": 16
      },
      "attrs": [
        {}
      ],
      "properties": {
        "order": 1,
        "id": 1,
        "prevSize": 16,
        "code": 58898,
        "name": "search"
      },
      "setIdx": 1,
      "setId": 1,
      "iconIdx": 7
    },
    {
      "icon": {
        "paths": [
          "M389.171 687.002c-13.722 13.875-13.722 36.301 0 50.125 13.67 13.875 35.891 13.875 49.613 0l196.096-200.038c13.722-13.875 13.722-36.301 0-50.125l-196.096-200.090c-13.722-13.875-35.891-13.875-49.613 0s-13.722 36.25-0.051 50.074l160.819 175.053-160.768 175.002z"
        ],
        "attrs": [
          {}
        ],
        "isMulticolor": false,
        "tags": [
          "arrow-right",
          "right",
          "next"
        ],
        "grid": 20
      },
      "attrs": [
        {}
      ],
      "properties": {
        "order": 2,
        "id": 3,
        "prevSize": 20,
        "code": 58886,
        "name": "arrow-right"
      },
      "setIdx": 1,
      "setId": 1,
      "iconIdx": 8
    },
    {
      "icon": {
        "paths": [
          "M634.829 687.002c13.722 13.875 13.722 36.301 0 50.125-13.722 13.875-35.891 13.875-49.613 0l-196.096-200.038c-13.722-13.875-13.722-36.301 0-50.125l196.096-200.090c13.722-13.875 35.891-13.875 49.613 0s13.722 36.25 0 50.125l-160.768 175.002 160.768 175.002z"
        ],
        "attrs": [
          {}
        ],
        "isMulticolor": false,
        "tags": [
          "arrow-left",
          "left",
          "previous"
        ],
        "grid": 20
      },
      "attrs": [
        {}
      ],
      "properties": {
        "order": 3,
        "id": 2,
        "prevSize": 20,
        "code": 58887,
        "name": "arrow-left"
      },
      "setIdx": 1,
      "setId": 1,
      "iconIdx": 9
    },
    {
      "icon": {
        "paths": [
          "M687.002 389.171c13.875-13.722 36.301-13.722 50.125 0 13.875 13.722 13.875 35.891 0 49.613l-200.038 196.096c-13.875 13.722-36.301 13.722-50.125 0l-200.090-196.096c-13.824-13.722-13.824-35.891 0-49.613 13.875-13.722 36.25-13.722 50.125 0l175.002 160.768 175.002-160.768z"
        ],
        "attrs": [
          {}
        ],
        "isMulticolor": false,
        "tags": [
          "arrow-down",
          "down",
          "bottom"
        ],
        "grid": 20
      },
      "attrs": [
        {}
      ],
      "properties": {
        "order": 4,
        "id": 1,
        "prevSize": 20,
        "code": 58888,
        "name": "arrow-down"
      },
      "setIdx": 1,
      "setId": 1,
      "iconIdx": 10
    },
    {
      "icon": {
        "paths": [
          "M336.947 634.829c-13.875 13.722-36.25 13.722-50.125 0-13.824-13.722-13.875-35.891 0-49.664l200.090-195.994c13.875-13.722 36.301-13.722 50.125 0l200.090 196.045c13.875 13.773 13.875 35.942 0 49.664s-36.25 13.722-50.125 0l-175.053-160.819-175.002 160.768z"
        ],
        "attrs": [
          {}
        ],
        "isMulticolor": false,
        "tags": [
          "arrow-up",
          "up",
          "top"
        ],
        "grid": 20
      },
      "attrs": [
        {}
      ],
      "properties": {
        "order": 5,
        "id": 0,
        "prevSize": 20,
        "code": 58889,
        "name": "arrow-up"
      },
      "setIdx": 1,
      "setId": 1,
      "iconIdx": 11
    },
    {
      "icon": {
        "paths": [
          "M810.667 170.667q18.333 0 30.5 12.167t12.167 30.5q0 18-12.333 30.333l-268.667 268.333 268.667 268.333q12.333 12.333 12.333 30.333 0 18.333-12.167 30.5t-30.5 12.167q-18 0-30.333-12.333l-268.333-268.667-268.333 268.667q-12.333 12.333-30.333 12.333-18.333 0-30.5-12.167t-12.167-30.5q0-18 12.333-30.333l268.667-268.333-268.667-268.333q-12.333-12.333-12.333-30.333 0-18.333 12.167-30.5t30.5-12.167q18 0 30.333 12.333l268.333 268.667 268.333-268.667q12.333-12.333 30.333-12.333z"
        ],
        "attrs": [
          {}
        ],
        "isMulticolor": false,
        "tags": [
          "cross"
        ],
        "grid": 24
      },
      "attrs": [
        {}
      ],
      "properties": {
        "order": 6,
        "id": 0,
        "prevSize": 24,
        "code": 58885,
        "name": "close"
      },
      "setIdx": 1,
      "setId": 1,
      "iconIdx": 12
    },
    {
      "icon": {
        "paths": [
          "M128 768h768v-85.333h-768v85.333zM128 554.667h768v-85.333h-768v85.333zM128 256v85.333h768v-85.333h-768z"
        ],
        "attrs": [
          {}
        ],
        "isMulticolor": false,
        "tags": [
          "menu"
        ],
        "grid": 24
      },
      "attrs": [
        {}
      ],
      "properties": {
        "order": 9,
        "id": 0,
        "prevSize": 24,
        "code": 58882,
        "name": "menu"
      },
      "setIdx": 1,
      "setId": 1,
      "iconIdx": 13
    }
  ],
  "height": 1024,
  "metadata": {
    "name": "icomoon"
  },
  "preferences": {
    "showGlyphs": true,
    "showQuickUse": true,
    "showQuickUse2": true,
    "showSVGs": true,
    "fontPref": {
      "prefix": "icon-",
      "metadata": {
        "fontFamily": "icomoon",
        "majorVersion": 1,
        "minorVersion": 0
      },
      "metrics": {
        "emSize": 1024,
        "baseline": 6.25,
        "whitespace": 50
      },
      "ie7": false,
      "showSelector": false,
      "showMetrics": false,
      "showMetadata": false,
      "showVersion": false,
      "resetPoint": 58880,
      "embed": false
    },
    "imagePref": {
      "prefix": "icon-",
      "png": true,
      "useClassSelector": true,
      "color": 4473924,
      "bgColor": 16777215
    },
    "historySize": 100,
    "showCodes": true,
    "showLiga": false,
    "gridSize": 16,
    "showGrid": false
  }
}