<?xml version="1.0" standalone="no"?>
<!DOCTYPE svg PUBLIC "-//W3C//DTD SVG 1.1//EN" "http://www.w3.org/Graphics/SVG/1.1/DTD/svg11.dtd" >
<svg xmlns="http://www.w3.org/2000/svg">
<metadata>Generated by IcoMoon</metadata>
<defs>
<font id="icomoon" horiz-adv-x="1024">
<font-face units-per-em="1024" ascent="960" descent="-64" />
<missing-glyph horiz-adv-x="1024" />
<glyph unicode="&#x20;" horiz-adv-x="512" d="" />
<glyph unicode="&#xe602;" glyph-name="menu" d="M128 170.667h768v85.333h-768v-85.333zM128 384h768v85.333h-768v-85.333zM128 682.667v-85.333h768v85.333h-768z" />
<glyph unicode="&#xe605;" glyph-name="close" d="M810.667 768q18.333 0 30.5-12.167t12.167-30.5q0-18-12.333-30.333l-268.667-268.333 268.667-268.333q12.333-12.333 12.333-30.333 0-18.333-12.167-30.5t-30.5-12.167q-18 0-30.333 12.333l-268.333 268.667-268.333-268.667q-12.333-12.333-30.333-12.333-18.333 0-30.5 12.167t-12.167 30.5q0 18 12.333 30.333l268.667 268.333-268.667 268.333q-12.333 12.333-12.333 30.333 0 18.333 12.167 30.5t30.5 12.167q18 0 30.333-12.333l268.333-268.667 268.333 268.667q12.333 12.333 30.333 12.333z" />
<glyph unicode="&#xe606;" glyph-name="arrow-right" d="M389.171 285.798c-13.722-13.875-13.722-36.301 0-50.125 13.67-13.875 35.891-13.875 49.613 0l196.096 200.038c13.722 13.875 13.722 36.301 0 50.125l-196.096 200.090c-13.722 13.875-35.891 13.875-49.613 0s-13.722-36.25-0.051-50.074l160.819-175.053-160.768-175.002z" />
<glyph unicode="&#xe607;" glyph-name="arrow-left" d="M634.829 285.798c13.722-13.875 13.722-36.301 0-50.125-13.722-13.875-35.891-13.875-49.613 0l-196.096 200.038c-13.722 13.875-13.722 36.301 0 50.125l196.096 200.090c13.722 13.875 35.891 13.875 49.613 0s13.722-36.25 0-50.125l-160.768-175.002 160.768-175.002z" />
<glyph unicode="&#xe608;" glyph-name="arrow-down" d="M687.002 583.629c13.875 13.722 36.301 13.722 50.125 0 13.875-13.722 13.875-35.891 0-49.613l-200.038-196.096c-13.875-13.722-36.301-13.722-50.125 0l-200.090 196.096c-13.824 13.722-13.824 35.891 0 49.613 13.875 13.722 36.25 13.722 50.125 0l175.002-160.768 175.002 160.768z" />
<glyph unicode="&#xe609;" glyph-name="arrow-up" d="M336.947 337.971c-13.875-13.722-36.25-13.722-50.125 0-13.824 13.722-13.875 35.891 0 49.664l200.090 195.994c13.875 13.722 36.301 13.722 50.125 0l200.090-196.045c13.875-13.773 13.875-35.942 0-49.664s-36.25-13.722-50.125 0l-175.053 160.819-175.002-160.768z" />
<glyph unicode="&#xe612;" glyph-name="search" d="M1000.64 70.848l-184.896 184.896c50.688 72.576 80.64 160.704 80.64 255.936 0 247.424-200.64 448-448 448s-448-200.576-448-448c0-247.424 200.576-448 448-448 95.232 0 183.424 29.952 256 80.64l184.896-184.896c30.72-30.72 80.64-30.72 111.36 0s30.72 80.576 0 111.424zM448.32 191.616c-176.704 0-320 143.232-320 320s143.296 320 320 320c176.768 0 320-143.232 320-320 0.064-176.768-143.168-320-320-320z" />
<glyph unicode="&#xe901;" glyph-name="facebook" horiz-adv-x="512" d="M492.089 448.114l-149.504-0.171-0.398-511.943h-205.198v512h-136.988v176.242h136.988l-0.228 104.22c0 143.929 41.756 231.481 223.004 231.481h151.324v-176.412h-94.663c-70.542 0-73.899-24.519-73.899-70.656l-0.398-88.633h169.87l-19.911-176.185z" />
<glyph unicode="&#xe902;" glyph-name="instagram" d="M256.74-48.924c-60.188 2.731-92.956 12.743-114.688 21.276-27.833 10.448-51.545 26.167-70.957 46.095l-0.041 0.042c-20.027 19.426-35.771 43.146-45.761 69.685l-0.433 1.312c-8.476 21.732-18.546 54.5-21.276 114.688-2.958 65.081-3.584 84.651-3.584 249.572 0 164.864 0.626 184.377 3.584 249.515 2.731 60.245 12.8 92.9 21.276 114.688 11.207 28.843 24.576 49.38 46.194 71.054 19.444 20 43.158 35.739 69.68 45.757l1.318 0.437c21.732 8.476 54.5 18.489 114.688 21.22 65.081 3.015 84.651 3.584 249.515 3.584 164.921 0 184.377-0.626 249.572-3.584 60.188-2.731 92.843-12.8 114.631-21.22 28.843-11.207 49.38-24.633 71.054-46.194 21.618-21.618 34.987-42.212 46.194-71.054 8.476-21.732 18.489-54.443 21.22-114.688 3.015-65.138 3.641-84.651 3.641-249.515s-0.626-184.434-3.641-249.572c-2.731-60.188-12.8-92.956-21.22-114.688-10.446-27.843-26.186-51.559-46.148-70.953l-0.046-0.044c-21.618-21.561-42.212-34.93-71.054-46.137-21.732-8.533-54.443-18.546-114.631-21.276-65.138-3.015-84.651-3.584-249.572-3.584-164.864 0-184.434 0.569-249.515 3.584zM761.799 783.417c0-40.939 33.187-74.126 74.126-74.126s74.126 33.187 74.126 74.126v0c0 40.939-33.187 74.126-74.126 74.126s-74.126-33.187-74.126-74.126v0zM189.156 453.746c0-175.129 141.97-317.099 317.099-317.099s317.099 141.97 317.099 317.099v0c0 175.129-141.97 317.099-317.099 317.099s-317.099-141.97-317.099-317.099v0zM300.43 453.746c0 113.673 92.151 205.824 205.824 205.824s205.824-92.151 205.824-205.824v0c0-113.673-92.151-205.824-205.824-205.824s-205.824 92.151-205.824 205.824v0z" />
<glyph unicode="&#xe903;" glyph-name="more" horiz-adv-x="970" d="M463.171 915.914v-444.093h-444.093v-59.23h444.093v-444.093h59.176v444.093h444.093v59.23h-444.093v444.093z" />
<glyph unicode="&#xe904;" glyph-name="phone" horiz-adv-x="717" d="M612.966-29.798h-521.728c-27.443 0-49.766 18.432-49.766 40.96v179.302h621.363v-179.302c0-22.528-22.323-40.96-49.869-40.96zM91.238 925.798h521.728c27.546 0 49.869-18.432 49.869-40.96v-76.902h-621.363v76.851c0 22.528 22.323 40.96 49.766 40.96zM41.472 224.461v549.376h621.363v-549.427h-621.363zM612.966 960h-521.728c-50.278 0-91.238-33.792-91.238-75.162v-873.677c0-41.37 40.96-75.162 91.238-75.162h521.728c50.381 0 91.238 33.792 91.238 75.162v873.677c0 41.37-40.858 75.162-91.238 75.162zM352.154 66.304c0 0 0 0 0 0-13.933 0-25.234 11.266-25.293 25.185v0.006c0.625 13.471 11.699 24.155 25.267 24.155s24.642-10.685 25.265-24.099l0.002-0.056c-0.029-13.919-11.319-25.19-25.242-25.19 0 0 0 0 0 0v0zM352.154 141.773c0 0 0 0 0 0-27.809 0-50.366-22.485-50.483-50.267v-0.011c0-27.881 22.602-50.483 50.483-50.483s50.483 22.602 50.483 50.483v0c-0.116 27.793-22.674 50.278-50.483 50.278 0 0 0 0 0 0v0z" />
<glyph unicode="&#xe905;" glyph-name="youtube" horiz-adv-x="1463" d="M941.568 426.935l-406.235-196.754c-2.055-1.003-4.471-1.59-7.024-1.59-9.008 0-16.311 7.303-16.311 16.311 0 0.096 0.001 0.192 0.002 0.288v-0.014 405.65c0 12.361 12.8 20.407 23.625 14.775l406.309-208.969c5.336-2.853 8.904-8.387 8.904-14.755 0-6.512-3.732-12.152-9.174-14.898l-0.096-0.044zM1159.022 960h-855.186c-167.79 0-303.835-134.583-303.835-300.617v-422.766c0-166.107 136.046-300.617 303.835-300.617h855.186c167.79 0 303.835 134.583 303.835 300.544v422.839c0 166.034-136.046 300.617-303.835 300.617z" />
<glyph unicode="&#xe906;" glyph-name="triangle" d="M1024 448l-1024-512v1024z" />
<glyph unicode="&#xe907;" glyph-name="prev" horiz-adv-x="549" d="M71.095 448l468.846 462.482c5.331 5.2 8.637 12.454 8.637 20.48s-3.306 15.28-8.631 20.474l-0.006 0.006c-5.337 5.286-12.682 8.551-20.791 8.551s-15.454-3.266-20.793-8.554l0.002 0.002-489.691-482.999c-5.331-5.2-8.637-12.454-8.637-20.48s3.306-15.28 8.631-20.474l0.006-0.006 489.691-482.853c5.312-5.256 12.599-8.525 20.65-8.594h0.013c0.041 0 0.090 0 0.138 0 8.044 0 15.32 3.287 20.558 8.592l0.003 0.003c5.331 5.2 8.637 12.454 8.637 20.48s-3.306 15.28-8.631 20.474l-0.006 0.006-468.626 462.446z" />
<glyph unicode="&#xe908;" glyph-name="next" horiz-adv-x="549" d="M477.477 448l-468.846 462.519c-5.331 5.2-8.637 12.454-8.637 20.48s3.306 15.28 8.631 20.474l0.006 0.006c5.337 5.286 12.682 8.551 20.791 8.551s15.454-3.266 20.793-8.554l-0.002 0.002 489.691-483.035c11.557-11.337 11.557-29.623 0-40.96l-489.655-482.926c-5.325-5.251-12.627-8.509-20.69-8.558h-0.009c-0.041 0-0.090 0-0.138 0-8.044 0-15.32 3.287-20.558 8.592l-0.003 0.003c-5.331 5.2-8.637 12.454-8.637 20.48s3.306 15.28 8.631 20.474l0.006 0.006 468.626 462.482z" />
</font></defs></svg>